"First Name","Last Name","Order Number",Amount,"Ticket Type","Max Ticket","Order Date"
mohit,subg,LY9J82611,300.00,"this is kk",2,2018-Nov-13
Geet,Singh,LY9J82612,100.00,jakkdkdk,3,2018-Dec-02
Geet,Singh,LY9J82613,500.00,yfhgfg,1,2018-Nov-13
Ravi,ravi,LY9J82615,200.00,game,2,2018-Nov-13
